CA Lab Project/CA Lab Project/CA Lab Project.sim/sim_1/behav/xsim/tb_ProjectFinal.vcd
$date
   Sat Apr 18 17:10:14 2026
$end
$version
  2020.1
$end
$timescale
  1ps
$end
$scope module tb_ProjectFinal $end
$var reg 1 ! clk $end
$var reg 1 " reset_btn $end
$var reg 16 # sw [15:0] $end
$var wire 16 $ led [15:0] $end
$var wire 4 % an [3:0] $end
$var wire 7 & seg [6:0] $end
$scope module uut $end
$var wire 1 ' clk $end
$var wire 1 ( reset_btn $end
$var wire 16 ) sw [15:0] $end
$var wire 16 $ led [15:0] $end
$var wire 4 % an [3:0] $end
$var wire 7 & seg [6:0] $end
$var wire 1 * rst $end
$var wire 16 + switches [15:0] $end
$var wire 16 , leds [15:0] $end
$var wire 32 - PC [31:0] $end
$var wire 32 . PCplus4 [31:0] $end
$var wire 32 / branchTarget [31:0] $end
$var wire 32 0 nextPC [31:0] $end
$var wire 1 1 PCWrite $end
$var wire 32 2 instruction [31:0] $end
$var wire 7 3 opcode [6:0] $end
$var wire 5 4 rs1 [4:0] $end
$var wire 5 5 rs2 [4:0] $end
$var wire 5 6 rd [4:0] $end
$var wire 3 7 funct3 [2:0] $end
$var wire 1 8 isRType $end
$var wire 32 9 readData1 [31:0] $end
$var wire 32 : readData2 [31:0] $end
$var wire 32 ; writeData [31:0] $end
$var wire 1 < RegWrite $end
$var wire 32 = ALUInputB [31:0] $end
$var wire 32 > ALUResult [31:0] $end
$var wire 1 ? ALUZero $end
$var wire 4 @ ALUControl [3:0] $end
$var wire 2 A ALUOp [1:0] $end
$var wire 1 B ALUSrc $end
$var wire 32 C dataMemoryRead [31:0] $end
$var wire 32 D dataMemoryWrite [31:0] $end
$var wire 32 E memoryAddress [31:0] $end
$var wire 1 F MemRead $end
$var wire 1 G MemWrite $end
$var wire 1 H Branch $end
$var wire 1 I Jump $end
$var wire 1 J Jalr $end
$var wire 2 K MemtoReg [1:0] $end
$var wire 32 L immediate [31:0] $end
$var wire 3 M immType [2:0] $end
$var wire 32 N debugPC [31:0] $end
$var wire 32 O debugInstruction [31:0] $end
$var wire 32 P debugALUResult [31:0] $end
$var reg 26 Q clk_counter [25:0] $end
$var reg 1 R slow_clk $end
$var wire 1 S branchCondition $end
$var wire 1 T takeBranchOrJump $end
$var wire 32 U targetPC [31:0] $end
$var wire 1 V DataMemSelect $end
$var wire 1 W LEDWrite $end
$var wire 1 X SwitchReadEnable $end
$var wire 32 Y finalReadData [31:0] $end
$var wire 16 Z debug_signals [15:0] $end
$var wire 16 [ display_value [15:0] $end
$scope module pc_unit $end
$var wire 1 ' clk $end
$var wire 1 * rst $end
$var wire 32 0 nextPC [31:0] $end
$var wire 1 1 PCWrite $end
$var reg 32 \ PC [31:0] $end
$upscope $end
$scope module pc_adder $end
$var wire 32 - PC [31:0] $end
$var wire 32 . PCplus4 [31:0] $end
$upscope $end
$scope module instr_mem $end
$var wire 32 - instAddress [31:0] $end
$var reg 32 ] instruction [31:0] $end
$var integer 32 ^ i $end
$var parameter 32 _ OPERAND_LENGTH [31:0] $end
$upscope $end
$scope module main_control $end
$var wire 7 3 opcode [6:0] $end
$var reg 1 ` RegWrite $end
$var reg 2 a ALUOp [1:0] $end
$var reg 1 b MemRead $end
$var reg 1 c MemWrite $end
$var reg 1 d ALUSrc $end
$var reg 2 e MemtoReg [1:0] $end
$var reg 1 f Branch $end
$var reg 1 g Jump $end
$var reg 1 h Jalr $end
$upscope $end
$scope module alu_control $end
$var wire 2 A ALUOp [1:0] $end
$var wire 3 7 funct3 [2:0] $end
$var wire 1 i funct7_bit $end
$var reg 4 j ALUControlOut [3:0] $end
$upscope $end
$scope module imm_gen $end
$var wire 32 2 instruction [31:0] $end
$var wire 3 M immType [2:0] $end
$var reg 32 k immediate [31:0] $end
$var wire 12 l i_imm [11:0] $end
$var wire 7 m s_hi [6:0] $end
$var wire 5 n s_lo [4:0] $end
$var wire 13 o b_raw [12:0] $end
$var wire 21 p j_raw [20:0] $end
$var wire 32 q u_imm [31:0] $end
$upscope $end
$scope module reg_file $end
$var wire 1 ' clk $end
$var wire 1 * rst $end
$var wire 1 < WriteEnable $end
$var wire 5 4 rs1 [4:0] $end
$var wire 5 5 rs2 [4:0] $end
$var wire 5 6 rd [4:0] $end
$var wire 32 ; WriteData [31:0] $end
$var wire 32 9 ReadData1 [31:0] $end
$var wire 32 : ReadData2 [31:0] $end
$var integer 32 r i $end
$upscope $end
$scope module alu_unit $end
$var wire 32 9 A [31:0] $end
$var wire 32 = B [31:0] $end
$var wire 4 @ ALUControl [3:0] $end
$var reg 32 s ALUResult [31:0] $end
$var wire 1 ? Zero $end
$upscope $end
$scope module branch_adder $end
$var wire 32 - PC [31:0] $end
$var wire 32 L immExtended [31:0] $end
$var wire 32 / branchTarget [31:0] $end
$upscope $end
$scope module pc_mux $end
$var wire 32 . in0 [31:0] $end
$var wire 32 U in1 [31:0] $end
$var wire 1 T sel $end
$var wire 32 0 out [31:0] $end
$var parameter 32 t WIDTH [31:0] $end
$upscope $end
$scope module addr_decoder $end
$var wire 32 E address [31:0] $end
$var wire 1 F MemRead $end
$var wire 1 G MemWrite $end
$var wire 1 V DataMemSelect $end
$var wire 1 W LEDSelect $end
$var wire 1 X SwitchSelect $end
$upscope $end
$scope module data_mem $end
$var wire 1 ' clk $end
$var wire 1 u MemWrite $end
$var wire 32 E address [31:0] $end
$var wire 32 D write_data [31:0] $end
$var wire 32 C read_data [31:0] $end
$upscope $end
$scope module led_interface $end
$var wire 1 ' clk $end
$var wire 1 * rst $end
$var wire 32 D writeData [31:0] $end
$var wire 1 W writeEnable $end
$var reg 16 v leds [15:0] $end
$upscope $end
$scope module display_unit $end
$var wire 1 ' clk $end
$var wire 1 * rst $end
$var wire 16 [ value [15:0] $end
$var reg 4 w an [3:0] $end
$var reg 7 x seg [6:0] $end
$var reg 20 y refresh_counter [19:0] $end
$var wire 2 z led_activating_counter [1:0] $end
$var reg 4 { current_digit [3:0] $end
$upscope $end
$upscope $end
$upscope $end
$enddefinitions $end
#0
$dumpvars
0!
1"
b0 #
bx $
b1110 %
bx &
0'
1(
b0 )
1*
b0 +
bx ,
bx -
bx .
bx /
bx 0
11
bx 2
bx 3
bx 4
bx 5
bx 6
bx 7
x8
bx 9
bx :
bx ;
x<
bx =
bx >
x?
bx @
bx A
xB
bx C
bx D
bx E
xF
xG
xH
xI
xJ
bx K
b0 L
bx M
bx N
bx O
bx P
b0 Q
0R
xS
xT
bx U
xV
xW
xX
bx Y
bx00xxxxx Z
bx [
bx \
bx ]
b100000000 ^
b11111 _
x`
bx a
xb
xc
xd
bx e
xf
xg
xh
xi
bx j
b0 k
bx l
bx m
bx n
bx0 o
bx0 p
bx000000000000 q
bx r
bx s
b100000 t
xu
bx v
b1110 w
bx x
b0 y
b0 z
bx {
$end
#5000
1!
b0 $
b1000000 &
1'
b0 ,
b0 -
b100 .
b111111100 /
b100 0
b11111110000000000000100010011 2
b10011 3
b0 4
b11100 5
b10 6
b0 7
08
b0 9
b0 :
b111111100 ;
1<
b111111100 =
b111111100 >
0?
b10 @
b10 A
1B
bx C
b0 D
b111111100 E
0F
0G
0H
0I
0J
b0 K
b111111100 L
b0 M
b0 N
b11111110000000000000100010011 O
b111111100 P
b1 Q
0S
0T
b111111100 U
1V
0W
0X
bx Y
b1000001000000010 Z
b0 [
b0 \
b11111110000000000000100010011 ]
1`
b10 a
0b
0c
1d
b0 e
0f
0g
0h
0i
b10 j
b111111100 k
b111111100 l
b1111 m
b10 n
b111100010 o
b111111100 p
b11111110000000000000000000000 q
b111111100 s
0u
b0 v
b1110 w
b1000000 x
b0 {
#10000
0!
0'
#15000
1!
1'
b10 Q
#20000
0!
0"
0'
0(
0*
#25000
1!
1'
b100 -
b1000 .
b1100000100 /
b1000 0
b110000000000000000110100010011 2
b0 5
b11010 6
b0 9
b0 :
b1100000000 ;
b1100000000 =
b1100000000 >
0?
bx C
b1100000000 E
b1100000000 L
b100 N
b110000000000000000110100010011 O
b1100000000 P
b11 Q
b1100000100 U
0V
0X
b0 [
b100 \
b110000000000000000110100010011 ]
b1100000000 k
b1100000000 l
b11000 m
b11010 n
b1100011010 o
b1100000000 p
b110000000000000000000000000000 q
b1100000000 s
b1 y
#30000
0!
0'
#35000
1!
1'
b1000 -
b1100 .
b1000001000 /
b1100 0
b100000000000000000110110010011 2
b11011 6
b0 9
b0 :
b1000000000 ;
b1000000000 =
b1000000000 >
0?
bx C
b1000000000 E
b1000000000 L
b1000 N
b100000000000000000110110010011 O
b1000000000 P
b100 Q
b1000001000 U
0X
b0 [
b1000 \
b100000000000000000110110010011 ]
b1000000000 k
b1000000000 l
b10000 m
b11011 n
b101000011010 o
b1000000000 p
b100000000000000000000000000000 q
b1000000000 s
b10 y
#40000
0!
0'
#45000
1!
b0 $
1'
b1100 -
b10000 .
b1100 /
b10000 0
b11010010010100000011 2
b11 3
b11010 4
b1010 6
b10 7
08
b1100000000 9
b0 :
b0 ;
1<
b0 =
b1100000000 >
0?
b10 @
b0 A
1B
bx C
b1100000000 E
1F
b1 K
b0 L
b0 M
b1100 N
b11010010010100000011 O
b1100000000 P
b101 Q
0S
b1100 U
0V
1X
b0 Y
b1100001010000010 Z
b0 [
b1100 \
b11010010010100000011 ]
1`
b0 a
1b
0c
1d
b1 e
0f
0g
0h
b10 j
b0 k
b0 l
b0 m
b1010 n
b1010 o
b11010010000000000000 p
b11010010000000000000 q
b1100000000 s
b11 y
#50000
0!
0'
#55000
1!
b0 $
1'
b10000 -
b10100 .
b1100 /
b1100 0
b11111110000001010000111011100011 2
b1100011 3
b1010 4
b11101 6
b0 7
08
b0 9
0<
b0 =
b0 >
1?
b110 @
b1 A
0B
bx C
b0 E
0F
1H
b0 K
b11111111111111111111111111111100 L
b10 M
b10000 N
b11111110000001010000111011100011 O
b0 P
b110 Q
1S
1T
b1100 U
1V
0X
bx Y
b1000000010110 Z
b0 [
b10000 \
b11111110000001010000111011100011 ]
0`
b1 a
0b
0c
0d
b0 e
1f
0g
0h
0i
b110 j
b11111111111111111111111111111100 k
b111111100000 l
b1111111 m
b11101 n
b1111111111100 o
b101010000011111100000 p
b11111110000001010000000000000000 q
b0 s
b100 y
#60000
0!
0'
#65000
1!
b0 $
1'
b1100 -
b10000 .
b1100 /
b10000 0
b11010010010100000011 2
b11 3
b11010 4
b1010 6
b10 7
08
b1100000000 9
b0 ;
1<
b0 =
b1100000000 >
0?
b10 @
b0 A
1B
bx C
b1100000000 E
1F
0H
b1 K
b0 L
b0 M
b1100 N
b11010010010100000011 O
b1100000000 P
b111 Q
0S
0T
b1100 U
0V
1X
b0 Y
b1100001010000010 Z
b0 [
b1100 \
b11010010010100000011 ]
1`
b0 a
1b
0c
1d
b1 e
0f
0g
0h
0i
b10 j
b0 k
b0 l
b0 m
b1010 n
b1010 o
b11010010000000000000 p
b11010010000000000000 q
b1100000000 s
b101 y
#70000
0!
0'
#75000
1!
b0 $
1'
b10000 -
b10100 .
b1100 /
b1100 0
b11111110000001010000111011100011 2
b1100011 3
b1010 4
b11101 6
b0 7
08
b0 9
0<
b0 =
b0 >
1?
b110 @
b1 A
0B
bx C
b0 E
0F
1H
b0 K
b11111111111111111111111111111100 L
b10 M
b10000 N
b11111110000001010000111011100011 O
b0 P
b1000 Q
1S
1T
b1100 U
1V
0X
bx Y
b1000000010110 Z
b0 [
b10000 \
b11111110000001010000111011100011 ]
0`
b1 a
0b
0c
0d
b0 e
1f
0g
0h
0i
b110 j
b11111111111111111111111111111100 k
b111111100000 l
b1111111 m
b11101 n
b1111111111100 o
b101010000011111100000 p
b11111110000001010000000000000000 q
b0 s
b110 y
#80000
0!
0'
#85000
1!
b0 $
1'
b1100 -
b10000 .
b1100 /
b10000 0
b11010010010100000011 2
b11 3
b11010 4
b1010 6
b10 7
08
b1100000000 9
b0 ;
1<
b0 =
b1100000000 >
0?
b10 @
b0 A
1B
bx C
b1100000000 E
1F
0H
b1 K
b0 L
b0 M
b1100 N
b11010010010100000011 O
b1100000000 P
b1001 Q
0S
0T
b1100 U
0V
1X
b0 Y
b1100001010000010 Z
b0 [
b1100 \
b11010010010100000011 ]
1`
b0 a
1b
0c
1d
b1 e
0f
0g
0h
0i
b10 j
b0 k
b0 l
b0 m
b1010 n
b1010 o
b11010010000000000000 p
b11010010000000000000 q
b1100000000 s
b111 y
#90000
0!
0'
#95000
1!
b0 $
1'
b10000 -
b10100 .
b1100 /
b1100 0
b11111110000001010000111011100011 2
b1100011 3
b1010 4
b11101 6
b0 7
08
b0 9
0<
b0 =
b0 >
1?
b110 @
b1 A
0B
bx C
b0 E
0F
1H
b0 K
b11111111111111111111111111111100 L
b10 M
b10000 N
b11111110000001010000111011100011 O
b0 P
b1010 Q
1S
1T
b1100 U
1V
0X
bx Y
b1000000010110 Z
b0 [
b10000 \
b11111110000001010000111011100011 ]
0`
b1 a
0b
0c
0d
b0 e
1f
0g
0h
0i
b110 j
b11111111111111111111111111111100 k
b111111100000 l
b1111111 m
b11101 n
b1111111111100 o
b101010000011111100000 p
b11111110000001010000000000000000 q
b0 s
b1000 y
#100000
0!
0'
#105000
1!
b0 $
1'
b1100 -
b10000 .
b1100 /
b10000 0
b11010010010100000011 2
b11 3
b11010 4
b1010 6
b10 7
08
b1100000000 9
b0 ;
1<
b0 =
b1100000000 >
0?
b10 @
b0 A
1B
bx C
b1100000000 E
1F
0H
b1 K
b0 L
b0 M
b1100 N
b11010010010100000011 O
b1100000000 P
b1011 Q
0S
0T
b1100 U
0V
1X
b0 Y
b1100001010000010 Z
b0 [
b1100 \
b11010010010100000011 ]
1`
b0 a
1b
0c
1d
b1 e
0f
0g
0h
0i
b10 j
b0 k
b0 l
b0 m
b1010 n
b1010 o
b11010010000000000000 p
b11010010000000000000 q
b1100000000 s
b1001 y
#110000
0!
0'
#115000
1!
b0 $
1'
b10000 -
b10100 .
b1100 /
b1100 0
b11111110000001010000111011100011 2
b1100011 3
b1010 4
b11101 6
b0 7
08
b0 9
0<
b0 =
b0 >
1?
b110 @
b1 A
0B
bx C
b0 E
0F
1H
b0 K
b11111111111111111111111111111100 L
b10 M
b10000 N
b11111110000001010000111011100011 O
b0 P
b1100 Q
1S
1T
b1100 U
1V
0X
bx Y
b1000000010110 Z
b0 [
b10000 \
b11111110000001010000111011100011 ]
0`
b1 a
0b
0c
0d
b0 e
1f
0g
0h
0i
b110 j
b11111111111111111111111111111100 k
b111111100000 l
b1111111 m
b11101 n
b1111111111100 o
b101010000011111100000 p
b11111110000001010000000000000000 q
b0 s
b1010 y
#120000
0!
b110 #
0'
b110 )
b110 +
bx Y
#125000
1!
b0 $
1'
b1100 -
b10000 .
b1100 /
b10000 0
b11010010010100000011 2
b11 3
b11010 4
b1010 6
b10 7
08
b1100000000 9
b110 ;
1<
b0 =
b1100000000 >
0?
b10 @
b0 A
1B
bx C
b1100000000 E
1F
0H
b1 K
b0 L
b0 M
b1100 N
b11010010010100000011 O
b1100000000 P
b1101 Q
0S
0T
b1100 U
0V
1X
b110 Y
b1100001010000010 Z
b0 [
b1100 \
b11010010010100000011 ]
1`
b0 a
1b
0c
1d
b1 e
0f
0g
0h
0i
b10 j
b0 k
b0 l
b0 m
b1010 n
b1010 o
b11010010000000000000 p
b11010010000000000000 q
b1100000000 s
b1011 y
#130000
0!
0'
#135000
1!
b0 $
1'
b10000 -
b10100 .
b1100 /
b10100 0
b11111110000001010000111011100011 2
b1100011 3
b1010 4
b11101 6
b0 7
08
b110 9
b0 :
0<
b0 =
b110 >
0?
b110 @
b1 A
0B
bx C
b110 E
0F
1H
b0 K
b11111111111111111111111111111100 L
b10 M
b10000 N
b11111110000001010000111011100011 O
b110 P
b1110 Q
0S
0T
b1100 U
1V
0X
bx Y
b1000000000110 Z
b0 [
b10000 \
b11111110000001010000111011100011 ]
0`
b1 a
0b
0c
0d
b0 e
1f
0g
0h
0i
b110 j
b11111111111111111111111111111100 k
b111111100000 l
b1111111 m
b11101 n
b1111111111100 o
b101010000011111100000 p
b11111110000001010000000000000000 q
b110 s
b1100 y
#140000
0!
0'
#145000
1!
b0 $
1'
b10100 -
b11000 .
b101100 /
b101100 0
b1100000000000000011101111 2
b1101111 3
b0 4
b11000 5
b1 6
08
b0 9
b0 :
b11000 ;
1<
b0 =
b0 >
1?
b10 @
b0 A
bx C
b0 E
0H
1I
b10 K
b11000 L
b11 M
b10100 N
b1100000000000000011101111 O
b0 P
b1111 Q
1S
1T
b101100 U
b1000100100010010 Z
b0 [
b10100 \
b1100000000000000011101111 ]
1`
b0 a
0b
0c
0d
b10 e
0f
1g
0h
0i
b10 j
b11000 k
b11000 l
b0 m
b1 n
b100000000000 o
b11000 p
b1100000000000000000000000 q
b0 s
b1101 y
#150000
0!
0'
#155000
1!
b0 $
1'
b101100 -
b110000 .
b100000 /
b110000 0
b11111111010000010000000100010011 2
b10011 3
b10 4
b10100 5
b10 6
08
b111111100 9
b0 :
b111110000 ;
1<
b11111111111111111111111111110100 =
b111110000 >
0?
b10 A
1B
bx C
b111110000 E
0I
b0 K
b11111111111111111111111111110100 L
b0 M
b101100 N
b11111111010000010000000100010011 O
b111110000 P
b10000 Q
0S
0T
b100000 U
0X
b1000001000000010 Z
b0 [
b101100 \
b11111111010000010000000100010011 ]
1`
b10 a
0b
0c
1d
b0 e
0f
0g
0h
0i
b10 j
b11111111111111111111111111110100 k
b111111110100 l
b1111111 m
b10 n
b1011111100010 o
b100010000011111110100 p
b11111111010000010000000000000000 q
b111110000 s
b1110 y
#160000
0!
0'
#165000
1!
b0 $
1'
b110000 -
b110100 .
b111000 /
b110100 0
b100010010010000100011 2
b100011 3
b1 5
b1000 6
b10 7
08
b111110000 9
b11000 :
b111111000 ;
0<
b1000 =
b111111000 >
0?
b10 @
b0 A
1B
bx C
b11000 D
b111111000 E
1G
b1000 L
b1 M
b110000 N
b100010010010000100011 O
b111111000 P
b10001 Q
0S
b111000 U
0X
b10001000000010 Z
b0 [
b110000 \
b100010010010000100011 ]
0`
b0 a
0b
1c
1d
b0 e
0f
0g
0h
0i
b10 j
b1000 k
b1 l
b0 m
b1000 n
b1000 o
b10010100000000000 p
b100010010000000000000 q
b111111000 s
1u
b1111 y
#170000
0!
0'
#175000
1!
1'
b110100 -
b111000 .
b111000 /
b111000 0
b100000010010001000100011 2
b1000 5
b100 6
b0 :
b111110100 ;
b100 =
b111110100 >
0?
bx C
b0 D
b111110100 E
b100 L
b110100 N
b100000010010001000100011 O
b111110100 P
b10010 Q
b111000 U
bx Y
b0 [
b110100 \
b100000010010001000100011 ]
b100 k
b1000 l
b100 n
b100 o
b10010000000001000 p
b100000010010000000000000 q
b111110100 s
b10000 y
#180000
0!
0'
#185000
1!
1'
b111000 -
b111100 .
b111000 /
b111100 0
b100100010010000000100011 2
b1001 5
b0 6
b0 :
b111110000 ;
b0 =
b111110000 >
0?
bx C
b111110000 E
b0 L
b111000 N
b100100010010000000100011 O
b111110000 P
b10011 Q
b111000 U
bx Y
b0 [
b111000 \
b100100010010000000100011 ]
b0 k
b1001 l
b0 n
b0 o
b10010100000001000 p
b100100010010000000000000 q
b111110000 s
b10001 y
#190000
0!
0'
#195000
1!
b0 $
1'
b111100 -
b1000000 .
b111101 /
b1000000 0
b100000000001010010011 2
b10011 3
b0 4
b1 5
b101 6
b0 7
08
b0 9
b11000 :
b1 ;
1<
b1 =
b1 >
0?
b10 A
1B
bx C
b11000 D
b1 E
0G
b1 L
b0 M
b111100 N
b100000000001010010011 O
b1 P
b10100 Q
0S
0T
b111101 U
0X
bx Y
b1000001000000010 Z
b0 [
b111100 \
b100000000001010010011 ]
1`
b10 a
0b
0c
1d
b0 e
0f
0g
0h
b10 j
b1 k
b1 l
b101 n
b100000000100 o
b100000000000 p
b100000000000000000000 q
b1 s
0u
b10010 y
#200000
0!
0'
#205000
1!
b0 $
1'
b1000000 -
b1000100 .
b1101000 /
b1000100 0
b10010101010000010001100011 2
b1100011 3
b1010 4
b101 5
b1000 6
08
b110 9
b1 :
b101 ;
0<
b1 =
b101 >
0?
b110 @
b1 A
0B
bx C
b1 D
b101 E
1H
b101000 L
b10 M
b1000000 N
b10010101010000010001100011 O
b101 P
b10101 Q
0T
b1101000 U
b1000000000110 Z
b0 [
b1000000 \
b10010101010000010001100011 ]
0`
b1 a
0b
0c
0d
b0 e
1f
0g
0h
b110 j
b101000 k
b100101 l
b1 m
b1000 n
b101000 o
b1010000100000100100 p
b10010101010000000000000000 q
b101 s
b10011 y
#210000
0!
0'
#215000
1!
b0 $
1'
b1000100 -
b1001000 .
b1000100 /
b1001000 0
b10000010011 2
b10011 3
b0 4
b0 5
08
b0 9
b0 :
b0 ;
1<
b0 =
b0 >
1?
b10 @
b10 A
1B
bx C
b0 D
b0 E
0H
b0 L
b0 M
b1000100 N
b10000010011 O
b0 P
b10110 Q
1S
0T
b1000100 U
b1000001000010010 Z
b0 [
b1000100 \
b10000010011 ]
1`
b10 a
0b
0c
1d
b0 e
0f
0g
0h
b10 j
b0 k
b0 l
b0 m
b1000 o
b0 p
b0 q
b0 s
b10100 y
#220000
0!
0'
#225000
1!
b0 $
1'
b1001000 -
b1001100 .
b1001001 /
b1001100 0
b100000000010010010011 2
b1 5
b1001 6
b11000 :
b1 ;
b1 =
b1 >
0?
bx C
b11000 D
b1 E
b1 L
b1001000 N
b100000000010010010011 O
b1 P
b10111 Q
0S
0T
b1001001 U
b1000001000000010 Z
b0 [
b1001000 \
b100000000010010010011 ]
b1 k
b1 l
b1001 n
b100000001000 o
b100000000000 p
b100000000000000000000 q
b1 s
b10101 y
#230000
0!
0'
#235000
1!
1'
b1001100 -
b1010000 .
b1001011 /
b1010000 0
b11111111111101010000010100010011 2
b1010 4
b11111 5
b1010 6
b110 9
b0 :
b101 ;
b11111111111111111111111111111111 =
b101 >
0?
bx C
b0 D
b101 E
b11111111111111111111111111111111 L
b1001100 N
b11111111111101010000010100010011 O
b101 P
b11000 Q
b1001011 U
b0 [
b1001100 \
b11111111111101010000010100010011 ]
0i
b11111111111111111111111111111111 k
b111111111111 l
b1111111 m
b1010 n
b1011111101010 o
b101010000111111111110 p
b11111111111101010000000000000000 q
b101 s
b10110 y
#240000
0!
0'
#245000
1!
b0 $
1'
b1010000 -
b1010100 .
b1011001 /
b1010100 0
b100101000000001010110011 2
b110011 3
b1000 4
b1001 5
b101 6
18
b0 9
b1 :
b1 ;
1<
b1 =
b1 >
0?
b10 A
0B
bx C
b1 D
b1 E
b1001 L
b0 M
b1010000 N
b100101000000001010110011 O
b1 P
b11001 Q
b1011001 U
1V
0X
b1000000000000010 Z
b0 [
b1010000 \
b100101000000001010110011 ]
1`
b10 a
0b
0c
0d
b0 e
0f
0g
0h
0i
b1001 k
b1001 l
b0 m
b101 n
b100000000100 o
b1000000100000001000 p
b100101000000000000000000 q
b1 s
b10111 y
#250000
0!
0'
#255000
1!
b0 $
1'
b1010100 -
b1011000 .
b1010100 /
b1011000 0
b1001000010000010011 2
b10011 3
b1001 4
b0 5
b1000 6
08
b1 9
b0 :
1<
b0 =
b10 A
1B
b0 D
b0 L
b0 M
b1010100 N
b1001000010000010011 O
b11010 Q
b1010100 U
b1000001000000010 Z
b0 [
b1010100 \
b1001000010000010011 ]
1`
b10 a
0b
0c
1d
b0 e
0f
0g
0h
0i
b0 k
b0 l
b1000 n
b1000 o
b1001000000000000000 p
b1001000000000000000 q
b1 s
b11000 y
#260000
0!
0'
#265000
1!
1'
b1011000 -
b1011100 .
b1011000 /
b1011100 0
b101000010010010011 2
b101 4
b1001 6
b1 9
b0 :
b1011000 N
b101000010010010011 O
b11011 Q
b1011000 U
b0 [
b1011000 \
b101000010010010011 ]
b0 k
b1001 n
b100000001000 o
b101000000000000000 p
b101000000000000000 q
b11001 y
#270000
0!
0'
#275000
1!
1'
b1011100 -
b1100000 .
b1011011 /
b1100000 0
b11111111111101010000010100010011 2
b1010 4
b11111 5
b1010 6
b101 9
b0 :
b100 ;
b11111111111111111111111111111111 =
b100 >
0?
bx C
b100 E
b11111111111111111111111111111111 L
b1011100 N
b11111111111101010000010100010011 O
b100 P
b11100 Q
b1011011 U
b0 [
b1011100 \
b11111111111101010000010100010011 ]
0i
b11111111111111111111111111111111 k
b111111111111 l
b1111111 m
b1010 n
b1011111101010 o
b101010000111111111110 p
b11111111111101010000000000000000 q
b100 s
b11010 y
#280000
0!
0'
#285000
1!
b0 $
1'
b1100000 -
b1100100 .
b1010000 /
b1010000 0
b11111110000001010001100011100011 2
b1100011 3
b0 5
b10001 6
b1 7
08
b100 9
b0 :
b100 ;
0<
b0 =
b100 >
0?
b110 @
b1 A
0B
bx C
b100 E
1H
b11111111111111111111111111110000 L
b10 M
b1100000 N
b11111110000001010001100011100011 O
b100 P
b11101 Q
1S
1T
b1010000 U
b1000000000110 Z
b0 [
b1100000 \
b11111110000001010001100011100011 ]
0`
b1 a
0b
0c
0d
b0 e
1f
0g
0h
b110 j
b11111111111111111111111111110000 k
b111111100000 l
b10001 n
b1111111110000 o
b101010001011111100000 p
b11111110000001010001000000000000 q
b100 s
b11011 y
#290000
0!
0'
#295000
1!
b0 $
1'
b1010000 -
b1010100 .
b1011001 /
b1010100 0
b100101000000001010110011 2
b110011 3
b1000 4
b1001 5
b101 6
b0 7
18
b1 9
b1 :
b10 ;
1<
b1 =
b10 >
0?
b10 @
b10 A
bx C
b1 D
b10 E
0H
b1001 L
b0 M
b1010000 N
b100101000000001010110011 O
b10 P
b11110 Q
0S
0T
b1011001 U
b1000000000000010 Z
b0 [
b1010000 \
b100101000000001010110011 ]
1`
b10 a
0b
0c
0d
b0 e
0f
0g
0h
0i
b10 j
b1001 k
b1001 l
b0 m
b101 n
b100000000100 o
b1000000100000001000 p
b100101000000000000000000 q
b10 s
b11100 y
#300000
0!
0'
#305000
1!
b0 $
1'
b1010100 -
b1011000 .
b1010100 /
b1011000 0
b1001000010000010011 2
b10011 3
b1001 4
b0 5
b1000 6
08
b1 9
b0 :
b1 ;
1<
b0 =
b1 >
0?
b10 A
1B
bx C
b0 D
b1 E
b0 L
b0 M
b1010100 N
b1001000010000010011 O
b1 P
b11111 Q
b1010100 U
b1000001000000010 Z
b0 [
b1010100 \
b1001000010000010011 ]
1`
b10 a
0b
0c
1d
b0 e
0f
0g
0h
0i
b0 k
b0 l
b1000 n
b1000 o
b1001000000000000000 p
b1001000000000000000 q
b1 s
b11101 y
#310000
0!
0'
#315000
1!
1'
b1011000 -
b1011100 .
b1011000 /
b1011100 0
b101000010010010011 2
b101 4
b1001 6
b10 9
b10 ;
b10 >
0?
bx C
b10 E
b1011000 N
b101000010010010011 O
b10 P
b100000 Q
b1011000 U
b0 [
b1011000 \
b101000010010010011 ]
b0 k
b1001 n
b100000001000 o
b101000000000000000 p
b101000000000000000 q
b10 s
b11110 y
#320000
0!
0'
#325000
1!
1'
b1011100 -
b1100000 .
b1011011 /
b1100000 0
b11111111111101010000010100010011 2
b1010 4
b11111 5
b1010 6
b100 9
b0 :
b11 ;
b11111111111111111111111111111111 =
b11 >
0?
bx C
b11 E
b11111111111111111111111111111111 L
b1011100 N
b11111111111101010000010100010011 O
b11 P
b100001 Q
b1011011 U
b0 [
b1011100 \
b11111111111101010000010100010011 ]
0i
b11111111111111111111111111111111 k
b111111111111 l
b1111111 m
b1010 n
b1011111101010 o
b101010000111111111110 p
b11111111111101010000000000000000 q
b11 s
b11111 y
#330000
0!
0'
#335000
1!
b0 $
1'
b1100000 -
b1100100 .
b1010000 /
b1010000 0
b11111110000001010001100011100011 2
b1100011 3
b0 5
b10001 6
b1 7
08
b11 9
b0 :
b11 ;
0<
b0 =
b11 >
0?
b110 @
b1 A
0B
bx C
b11 E
1H
b11111111111111111111111111110000 L
b10 M
b1100000 N
b11111110000001010001100011100011 O
b11 P
b100010 Q
1S
1T
b1010000 U
b1000000000110 Z
b0 [
b1100000 \
b11111110000001010001100011100011 ]
0`
b1 a
0b
0c
0d
b0 e
1f
0g
0h
b110 j
b11111111111111111111111111110000 k
b111111100000 l
b10001 n
b1111111110000 o
b101010001011111100000 p
b11111110000001010001000000000000 q
b11 s
b100000 y
#340000
0!
0'
#345000
1!
b0 $
1'
b1010000 -
b1010100 .
b1011001 /
b1010100 0
b100101000000001010110011 2
b110011 3
b1000 4
b1001 5
b101 6
b0 7
18
b1 9
b10 :
b11 ;
1<
b10 =
b11 >
0?
b10 @
b10 A
bx C
b10 D
b11 E
0H
b1001 L
b0 M
b1010000 N
b100101000000001010110011 O
b11 P
b100011 Q
0S
0T
b1011001 U
1V
0X
b1000000000000010 Z
b0 [
b1010000 \
b100101000000001010110011 ]
1`
b10 a
0b
0c
0d
b0 e
0f
0g
0h
0i
b10 j
b1001 k
b1001 l
b0 m
b101 n
b100000000100 o
b1000000100000001000 p
b100101000000000000000000 q
b11 s
b100001 y
#350000
0!
0'
#355000
1!
b0 $
1'
b1010100 -
b1011000 .
b1010100 /
b1011000 0
b1001000010000010011 2
b10011 3
b1001 4
b0 5
b1000 6
08
b10 9
b0 :
b10 ;
1<
b0 =
b10 >
0?
b10 A
1B
bx C
b0 D
b10 E
b0 L
b0 M
b1010100 N
b1001000010000010011 O
b10 P
b100100 Q
b1010100 U
b1000001000000010 Z
b0 [
b1010100 \
b1001000010000010011 ]
1`
b10 a
0b
0c
1d
b0 e
0f
0g
0h
0i
b0 k
b0 l
b1000 n
b1000 o
b1001000000000000000 p
b1001000000000000000 q
b10 s
b100010 y
#360000
0!
0'
